03.05.2021 05:48:59.166  ConnectSimple
03.05.2021 05:54:58.434  ConnectSimple
03.05.2021 06:03:32.571  ConnectSimple
03.05.2021 06:07:06.656  ConnectSimple
03.05.2021 06:08:45.601  ConnectSimple
03.05.2021 06:09:25.855  ConnectSimple
03.05.2021 06:15:19.577  ConnectSimple
04.05.2021 06:15:27.281  ConnectSimple
